playId table checkbox:

Go to: 

Ribbons_comp > Templates

Parent this:	

playId  /   checkbox in template

 1  =  id_1
 2  =  id_2
 3  =  id_3
 4  =  id_4
 5  =  id_5
 6  =  id_2 && id_6
 7  =  id_3 && id_7
 8  =  id_3 && id_8
 9  =  id_4 && id_9
10  =  id_4 && id_10
11  =  id_4 && id_11
12  =  id_5 && id_12
13  =  id_5 && id_13
14  =  id_5 && id_14
15  =  id_5 && id_15
16  =  id_16
